Agent 0. Speed: 2.0 sq/s
Agent 1. Speed: 8.0 sq/s
Agent 2. Speed: 2.0 sq/s
Agent 3. Speed: 2.0 sq/s
Agent 4. Speed: 2.0 sq/s


Pi_0,Pi_1,Pi_2,Pi_3,Pi_4,Search Time (s)
0.7,7.4,1.0,0.8,0.5,38.2
0.9,7.2,0.6,0.9,1.1,37.3
0.4,7.7,0.5,1.0,0.5,39.7
0.6,7.3,0.3,0.4,1.2,40.7
1.3,7.9,1.0,0.5,0.7,34.9
1.2,7.4,0.5,1.2,0.6,37.2
0.7,7.4,0.8,0.7,1.1,37.6
0.8,7.7,0.8,1.3,0.9,34.8
0.7,7.3,0.5,0.8,0.5,40.9
0.8,7.5,0.8,0.8,1.0,37.0
0.6,7.9,1.3,0.6,1.2,34.5
0.6,7.3,1.4,0.9,0.7,36.9
0.6,7.6,0.6,0.6,1.0,38.7
0.5,5.8,0.3,0.7,0.4,52.8
0.8,7.6,1.4,1.1,1.3,32.7
0.4,7.9,0.4,1.3,0.9,36.5
1.0,6.4,0.6,0.7,1.0,40.9
1.1,7.5,1.0,1.2,0.9,34.3
0.8,7.4,0.8,1.2,0.9,36.0
1.0,7.8,0.7,0.8,1.0,35.3
1.0,7.7,1.1,0.7,0.9,35.1
0.4,7.5,0.4,0.7,0.6,41.7
0.8,7.4,0.5,0.8,1.0,38.3
0.8,7.0,0.5,0.8,0.5,41.3
0.7,7.6,0.6,0.6,0.6,39.4
1.2,7.7,0.9,1.3,0.6,34.1
0.6,7.7,1.2,0.9,0.5,36.8
0.6,7.8,0.9,0.6,0.8,37.1
0.8,8.1,0.8,0.4,1.1,35.6
1.1,7.7,0.2,0.1,0.5,41.5
0.8,7.8,1.0,0.9,0.6,36.0
0.7,7.1,0.7,0.6,0.7,40.8
0.9,7.8,0.6,0.6,0.9,36.9
0.8,7.7,0.8,0.6,0.6,38.0
0.8,7.3,0.9,0.7,0.6,38.9
0.9,7.8,0.6,0.9,1.2,35.2
0.8,7.0,1.1,0.9,1.1,37.0
1.2,7.3,0.7,0.5,0.8,38.0
1.0,8.1,1.1,0.7,1.3,32.7
1.1,7.0,0.7,1.0,0.9,37.8
1.1,7.3,0.9,0.3,0.6,39.3
0.7,7.3,0.5,0.7,0.9,39.9
0.6,7.4,0.9,0.7,1.0,37.7
1.1,7.0,1.1,0.9,0.8,37.1
0.6,6.6,1.0,1.2,0.9,39.1
0.7,7.8,1.2,1.1,0.4,36.1
1.1,7.5,0.9,1.1,0.5,36.1
0.6,5.8,0.9,0.5,0.4,48.8
1.1,7.9,1.1,0.8,0.4,35.5
0.6,6.0,1.4,0.9,0.9,41.1
1.0,7.8,0.7,0.6,0.5,37.5
0.5,6.2,0.7,0.7,0.6,46.2
0.3,7.7,0.4,0.6,0.8,40.6
1.1,7.4,0.6,0.7,0.8,37.7
0.8,7.4,1.0,0.9,0.7,37.1
0.5,7.9,0.4,0.8,0.9,37.9
0.8,8.0,0.8,0.4,0.5,38.2
0.1,7.7,0.5,1.2,0.6,39.5
0.8,7.7,1.3,0.7,1.0,35.0
0.7,7.3,0.8,1.1,0.4,38.4
1.1,7.4,1.3,0.6,0.7,36.4
0.9,7.7,0.3,1.4,1.0,35.4
1.0,7.9,0.3,0.9,1.3,35.2
1.3,7.6,1.5,0.8,0.6,33.9
0.6,7.9,0.4,1.1,1.1,36.0
0.8,7.5,0.7,1.0,1.0,36.3
0.7,7.5,0.8,0.4,0.8,39.3
0.4,7.7,0.4,0.2,0.5,43.3
0.9,7.6,0.6,0.8,0.5,38.3
0.7,7.3,0.7,1.3,0.3,38.3
0.5,7.4,1.4,0.6,1.0,36.6
0.2,7.6,1.2,0.3,0.8,39.9
0.5,7.6,0.8,0.7,0.6,39.1
1.1,7.4,1.2,1.0,0.9,34.5
1.0,7.4,0.4,0.6,0.4,40.5
0.5,7.6,0.5,0.9,0.9,38.3
0.6,7.9,0.7,0.8,0.8,37.3
0.3,7.3,0.9,0.9,1.1,37.9
1.2,7.9,1.0,0.8,0.8,34.2
0.6,7.1,0.7,0.9,1.0,39.0
0.6,6.7,0.9,0.6,0.8,42.1
0.4,7.6,0.9,0.4,0.8,39.4
0.9,7.6,0.5,0.9,1.2,36.0
0.7,7.5,0.7,0.7,0.6,38.7
0.7,7.7,1.2,0.8,1.0,34.8
0.7,7.8,0.9,0.6,1.2,35.8
0.5,7.7,0.5,0.5,0.6,40.8
0.3,7.9,0.9,0.8,1.1,36.2
0.9,7.6,0.8,1.2,0.8,35.0
1.0,7.8,0.7,0.8,0.3,37.2
0.6,7.3,0.9,0.7,0.4,40.7
0.8,7.6,1.0,0.6,1.3,35.4
1.0,7.8,0.4,0.5,1.0,37.2
0.3,7.4,0.5,0.8,1.1,40.0
0.5,7.1,1.0,1.2,0.7,37.8
1.2,7.8,0.5,0.9,0.9,35.7
0.9,7.7,0.3,0.6,0.3,41.0
0.6,7.6,1.1,1.1,0.3,37.4
0.7,7.5,0.8,1.0,1.1,35.9
0.6,7.9,0.8,0.9,1.5,34.2
0.7,7.4,0.7,0.5,0.7,39.9
0.2,7.5,0.5,0.9,0.7,41.1
0.6,7.7,0.6,0.9,0.5,39.0
1.0,7.6,0.8,0.3,0.5,38.8
0.9,7.8,0.4,0.7,0.7,38.0
0.9,7.4,1.1,1.4,0.4,35.7
0.9,7.4,1.5,0.7,0.4,36.3
0.6,7.7,0.6,0.8,0.6,38.8
1.2,7.5,0.9,0.5,0.6,37.6
0.9,6.4,1.4,0.7,0.9,38.7
0.7,7.4,1.1,0.8,1.1,36.1
0.3,7.8,0.6,0.8,0.5,40.0
0.5,6.0,0.8,0.8,0.9,44.1
0.6,8.0,0.8,0.7,0.5,37.6
1.2,7.7,0.4,1.1,0.3,37.1
1.1,7.1,1.5,0.8,1.5,33.3
0.4,7.6,0.6,1.0,0.9,38.4
1.0,7.4,0.6,0.7,0.9,37.4
0.8,7.8,1.0,0.8,0.5,36.8
1.0,7.4,0.7,1.3,0.3,37.5
1.0,7.5,0.7,0.7,0.8,37.4
0.8,7.5,0.7,1.1,0.6,37.5
1.2,7.2,0.4,0.6,0.9,38.6
0.5,7.5,0.6,0.8,1.3,37.2
0.8,7.3,1.0,0.8,0.9,36.8
0.3,7.7,1.1,0.6,0.5,38.8
0.8,7.5,0.5,1.2,1.1,35.8
0.6,7.7,0.6,0.6,0.9,38.2
0.6,7.5,1.0,0.8,0.6,38.2
0.7,7.6,0.4,1.3,0.5,38.2
0.5,7.5,1.0,0.7,0.7,38.4
0.8,7.0,0.8,1.2,0.6,38.0
0.7,7.5,0.5,0.8,0.3,40.5
0.5,7.5,1.0,0.7,1.2,37.0
0.6,6.8,0.4,0.6,0.5,45.4
0.7,7.4,0.8,0.7,0.6,39.4
0.5,7.7,0.8,0.7,0.8,37.9
1.0,7.2,0.9,0.7,0.9,37.3
0.5,7.6,0.9,0.7,1.1,36.9
0.8,7.2,0.5,1.0,0.9,38.5
0.6,7.4,0.5,0.6,0.7,41.0
0.8,7.7,0.9,0.9,0.6,36.2
0.5,7.5,1.0,1.1,0.4,38.3
0.7,7.7,0.9,0.9,0.9,36.0
0.7,7.6,0.6,1.2,0.8,37.2
1.0,7.9,1.0,0.7,0.4,36.3
0.5,7.7,0.9,1.0,0.4,38.5
0.9,7.4,0.9,0.9,1.3,35.1
1.0,7.5,0.4,0.7,0.8,38.9
0.9,7.9,0.4,0.9,0.6,37.4
0.5,7.8,1.0,0.6,0.5,38.4
0.8,7.6,0.6,1.2,0.8,36.0
0.8,7.3,0.8,0.6,0.6,39.3
0.9,7.8,0.9,0.6,1.1,35.4
0.7,5.1,0.5,0.5,0.6,53.9
0.6,7.9,0.9,1.1,0.7,35.4
0.8,7.3,0.8,0.9,1.3,35.8
0.7,7.0,1.4,1.0,0.7,36.7
0.2,7.4,0.8,0.8,0.9,39.9
0.9,7.4,0.8,0.7,1.1,36.7
0.6,7.6,1.0,0.8,1.1,35.7
0.8,7.5,0.7,0.7,0.6,38.7
0.7,7.7,0.5,1.1,0.5,38.3
0.7,7.6,0.5,0.5,0.5,40.3
0.9,8.0,0.7,0.8,0.9,35.1
1.0,7.5,0.8,0.8,0.8,36.6
0.5,7.1,0.4,1.0,0.5,42.4
1.3,7.7,0.3,0.9,0.4,37.5
1.2,7.5,0.6,1.4,0.9,34.5
0.5,7.8,0.4,0.4,0.6,41.4
0.9,7.3,1.1,0.9,0.7,36.9
1.3,7.2,0.8,0.5,1.0,37.2
0.9,7.6,0.9,0.5,0.8,37.5
1.5,7.6,0.8,0.9,1.3,33.1
1.0,8.0,0.9,1.5,1.0,32.6
0.7,7.7,0.3,0.7,0.4,41.0
0.8,7.7,0.8,1.0,0.7,36.4
0.6,7.4,0.6,1.6,0.7,36.7
0.5,7.4,0.8,0.8,0.6,39.8
0.7,7.4,1.3,0.5,1.0,36.7
0.7,7.5,1.1,1.1,0.2,37.8
0.6,6.2,0.5,0.7,1.0,44.2
0.5,7.5,0.9,1.2,0.7,36.9
1.1,7.8,0.9,0.6,0.9,35.4
0.8,7.5,1.0,0.9,0.9,36.1
0.9,7.2,0.8,0.7,0.6,39.6
0.8,7.1,1.0,0.9,0.6,38.3
0.6,7.5,0.4,0.8,1.3,37.8
1.1,7.6,0.7,0.8,0.7,36.7
0.5,7.6,1.0,1.2,1.4,34.1
1.0,7.6,0.8,0.5,0.9,37.0
0.4,7.6,0.7,1.0,1.2,37.1
0.9,7.2,1.1,0.7,0.9,37.3
0.3,5.7,0.6,0.2,0.2,56.9
0.9,7.6,0.8,0.7,0.8,37.1
0.2,7.3,1.3,1.2,0.3,38.8
0.2,7.6,1.0,0.3,1.4,37.8
1.1,7.6,0.6,0.8,1.1,35.7
1.1,7.5,1.3,0.7,1.2,34.0
0.6,7.0,0.7,0.6,0.4,42.9
1.2,7.7,1.0,0.3,0.2,38.3
0.4,7.3,1.0,1.4,0.9,36.1
0.9,7.6,0.6,0.9,0.8,37.2
0.7,7.9,0.4,0.6,0.6,38.7
0.8,7.6,0.9,0.9,0.9,36.3
1.2,6.9,0.5,0.9,1.2,37.7
0.5,8.0,0.8,0.6,0.8,36.9
0.7,7.5,1.0,0.8,0.7,37.5
0.9,7.8,0.6,1.3,0.8,35.0
0.8,8.1,0.8,0.3,0.5,38.5
0.4,7.1,0.9,1.0,1.0,38.3
1.3,7.6,0.8,0.9,1.2,34.1
1.0,7.4,0.8,0.6,0.7,37.4
1.0,7.4,0.4,1.2,0.5,38.0
0.8,7.2,0.7,0.3,0.8,40.7
0.7,7.7,1.1,1.0,0.4,36.5
0.9,7.6,0.8,0.5,1.0,37.2
0.5,7.1,0.9,1.5,0.3,38.9
0.3,6.3,0.8,0.7,0.5,46.5
1.2,6.6,1.3,0.7,0.8,37.6
1.1,7.3,1.2,0.5,0.5,37.4
0.9,7.7,0.8,0.6,0.5,38.0
0.7,7.9,0.5,0.7,0.8,38.0
1.0,7.3,0.7,1.0,1.1,36.3
0.7,7.9,0.9,0.6,1.0,36.0
0.9,7.8,1.1,0.7,0.9,35.2
0.5,8.1,1.0,0.7,0.7,36.1
0.6,7.9,0.5,0.6,0.9,37.4
0.3,7.6,0.6,0.7,0.7,40.7
1.0,7.2,0.5,1.2,0.9,37.3
0.7,6.8,0.4,0.5,0.3,45.6
0.9,8.1,0.5,0.5,0.7,37.6
0.8,7.6,0.9,0.3,0.8,38.4
0.8,7.8,0.9,0.4,0.9,36.9
0.6,7.2,0.6,0.6,0.6,41.6
0.5,7.7,0.9,0.7,0.4,39.2
0.8,7.6,0.8,0.4,1.1,37.4
1.0,8.4,0.7,1.1,0.5,34.4
0.9,6.6,0.8,0.9,0.8,39.6
1.1,8.0,1.0,1.0,1.3,32.0
1.1,7.8,1.0,0.9,0.7,34.9
1.2,7.8,0.3,0.9,1.1,35.5
0.3,7.6,0.5,1.1,1.1,37.9
1.2,7.2,0.7,1.3,0.7,36.1
1.2,7.8,0.9,0.8,0.6,34.8
0.5,6.5,0.6,0.6,0.6,45.4
1.3,6.8,0.7,0.4,0.9,39.2
0.8,5.7,0.5,0.6,0.6,47.9
0.9,7.3,0.7,0.6,0.8,39.1
1.0,7.0,0.7,1.3,1.1,35.9
0.2,8.2,0.3,0.8,0.9,38.5
1.0,7.8,0.7,0.8,0.5,36.9
0.6,8.0,0.6,1.2,0.9,35.4
1.0,7.3,1.1,1.2,1.1,34.2
0.3,6.6,0.5,1.1,0.9,42.8
0.8,7.3,0.4,1.2,0.9,38.0
0.9,7.8,0.3,1.2,0.6,37.5
0.6,7.5,0.6,0.9,0.6,38.8
0.6,7.5,0.9,0.9,0.7,37.6
0.8,7.9,0.6,1.3,1.0,34.4
0.5,7.7,0.8,1.1,0.6,37.6
0.7,7.9,0.6,1.0,0.9,36.3
0.9,7.8,0.7,0.7,0.8,36.6
0.8,7.2,1.0,0.6,0.3,40.4
0.4,7.5,1.3,0.5,1.0,37.3
0.9,7.7,0.5,1.7,1.0,33.9
0.8,7.3,0.8,0.8,0.9,37.9
0.4,6.6,0.4,1.0,1.0,42.4
0.9,7.6,1.0,0.9,1.0,34.8
1.1,7.6,0.7,0.7,0.4,38.2
1.0,7.1,1.2,0.6,1.0,36.4
0.3,7.7,0.4,1.1,0.5,40.3
0.4,7.7,0.4,0.9,0.7,39.5
1.2,7.8,0.4,0.8,0.6,37.5
0.6,7.9,0.7,0.8,0.6,38.0
0.9,7.3,0.7,1.2,1.2,35.3
0.3,8.0,0.5,0.2,0.3,42.9
0.7,7.9,0.6,1.5,0.7,35.1
0.6,6.6,0.5,1.1,0.5,43.4
1.3,7.3,0.8,0.6,1.0,36.4
0.8,7.8,0.6,0.3,0.8,39.1
0.7,7.0,0.4,0.6,0.3,44.6
0.4,7.2,1.1,1.2,0.4,38.6
0.9,7.3,1.1,0.6,0.8,37.4
1.0,7.5,0.2,1.4,0.6,37.2
0.6,7.6,0.3,0.5,0.7,40.8
0.6,7.8,0.7,0.6,0.8,37.9
0.9,7.6,0.4,1.1,0.8,37.1
0.4,7.8,0.5,0.5,0.4,42.0
0.8,7.7,1.1,0.7,0.7,36.3
0.8,7.7,0.8,0.7,0.7,37.4
0.9,7.5,1.1,0.9,0.6,36.2
0.8,7.5,0.7,0.5,1.1,37.4
0.9,7.4,1.3,0.9,0.5,36.2
0.2,7.3,0.8,1.1,0.4,40.7
0.8,7.6,0.9,1.0,0.7,36.7
0.5,7.6,0.5,1.1,0.9,37.7
0.3,7.8,0.6,0.6,0.5,40.6
0.8,7.2,0.9,1.2,1.3,35.2
0.8,7.7,0.7,1.1,1.1,35.2
0.9,7.5,0.5,0.7,1.2,37.4
0.5,6.8,1.0,0.9,0.9,39.6
0.8,7.4,0.8,0.6,0.7,38.4
0.5,7.5,1.0,1.0,1.1,36.0
1.1,7.5,0.7,0.8,1.0,36.3
1.3,7.4,0.6,0.5,0.8,37.8
0.6,7.5,0.9,0.9,0.5,38.6
0.6,7.7,0.8,1.2,0.8,36.2
0.9,7.7,0.5,1.2,1.1,34.9
0.7,7.6,0.9,0.8,0.7,37.2
1.1,7.3,0.9,1.1,1.2,34.5
0.6,7.2,0.7,1.1,1.1,37.5
0.5,7.9,0.3,0.6,0.5,41.1
0.6,7.7,0.9,0.9,0.9,36.4
0.5,7.3,0.5,0.6,0.8,40.9
0.4,5.5,0.9,0.8,0.4,50.2
0.7,7.5,1.1,1.1,0.5,36.5
0.6,7.8,1.1,0.7,0.5,37.7
1.0,8.2,0.9,0.9,1.2,33.1
0.9,7.8,0.7,0.6,1.1,35.8
0.7,7.3,1.2,1.4,1.4,33.4
0.6,7.7,0.6,0.9,0.9,37.3
0.5,7.6,1.1,1.2,1.0,35.3
0.9,8.0,0.8,0.7,0.7,35.8
0.6,6.5,0.4,0.3,0.6,47.1
0.4,7.7,0.6,1.1,0.8,38.2
0.5,7.6,1.3,1.0,0.6,36.3
0.5,6.7,0.3,0.7,0.5,46.0
1.1,7.5,1.3,0.9,0.6,35.2
0.7,8.0,1.2,0.4,0.8,36.3
0.9,7.7,0.9,1.3,0.7,34.7
0.7,8.0,1.0,0.3,1.0,36.2
0.6,7.6,0.6,0.9,0.9,37.6
0.7,7.6,0.7,0.7,0.6,39.1
0.8,7.8,0.8,0.8,0.5,37.2
0.4,7.3,0.6,1.0,0.6,40.4
0.7,7.3,1.5,0.3,0.9,37.2
0.6,7.2,0.7,0.5,1.1,39.1
0.8,6.5,0.7,0.5,0.4,45.0
0.9,7.4,0.6,0.5,0.8,39.0
0.2,7.4,0.6,1.5,0.7,38.6
0.5,7.6,0.6,0.5,0.5,41.6
0.9,7.3,1.5,1.0,0.8,35.0
0.6,7.2,1.4,0.7,1.1,36.5
0.6,7.4,0.7,1.3,0.4,38.4
0.6,7.3,1.0,0.9,0.8,37.6
0.8,7.4,1.6,1.4,0.6,34.2
0.7,7.4,1.3,0.7,0.4,37.8
0.6,7.4,0.9,1.1,0.7,37.6
0.5,7.7,0.4,0.8,0.7,39.3
0.9,7.5,0.8,1.0,0.6,37.2
1.3,7.4,0.9,0.7,0.6,36.7
1.1,7.6,0.7,0.2,1.3,36.4
0.5,7.4,0.4,0.7,1.0,39.8
1.0,6.9,1.1,0.8,0.7,38.0
0.5,7.2,1.3,1.0,1.1,35.9
1.3,7.7,0.7,0.7,1.1,34.6
0.8,6.6,0.9,0.4,0.8,41.9
0.5,7.6,0.6,0.7,1.0,38.9
0.8,7.6,0.5,0.7,1.1,37.2
0.6,7.3,0.7,1.1,0.7,38.4
0.8,7.8,0.8,1.1,0.6,36.1
0.5,6.2,0.5,0.7,0.9,45.8
0.7,7.5,0.7,1.4,0.9,36.1
0.6,7.4,0.9,1.0,0.5,38.5
0.6,7.1,1.1,0.4,0.8,40.0
0.7,7.8,0.2,1.1,1.2,36.5
0.9,7.5,0.3,0.4,1.0,39.2
0.3,7.9,0.8,0.1,1.3,38.7
0.9,7.8,1.2,0.5,0.5,36.5
1.0,6.5,0.7,0.7,0.9,41.0
0.6,7.0,0.9,1.4,1.0,36.8
0.4,7.1,0.9,0.7,0.9,39.7
0.3,7.9,0.3,0.7,0.3,41.6
0.7,7.4,0.9,1.3,0.6,37.0
0.4,7.7,0.2,0.6,0.8,40.6
0.9,6.8,0.8,1.3,0.8,38.1
1.0,7.0,1.2,1.2,1.0,34.9
0.4,5.4,0.6,0.7,0.7,51.6
0.7,7.3,0.4,1.1,1.0,38.1
0.8,7.9,0.9,0.6,0.8,36.0
0.8,7.3,1.1,1.0,1.2,35.1
0.7,7.4,1.0,1.0,0.7,36.9
1.2,7.3,0.5,0.8,0.9,37.5
1.1,7.2,0.4,0.8,1.2,37.6
1.0,7.1,0.8,1.1,0.7,37.4
0.1,7.3,0.4,0.8,0.2,45.9
0.7,7.6,0.9,1.0,0.9,36.4
1.4,7.6,0.5,0.4,0.8,37.3
0.7,7.2,1.0,0.6,0.7,39.5
1.4,7.1,0.9,0.5,1.1,36.2
1.0,6.8,0.7,1.0,0.4,40.7
0.7,7.5,0.7,1.1,0.9,36.5
0.8,7.0,0.8,1.1,0.9,37.5
0.8,7.2,1.4,0.4,1.1,36.6
0.4,7.3,1.0,0.8,0.8,38.6
0.5,7.8,1.0,0.5,0.5,39.1
0.8,7.5,0.5,1.0,0.6,38.5
1.6,7.2,1.1,1.1,0.9,34.0
0.4,8.0,0.4,0.6,0.5,40.5
0.5,7.4,1.0,0.6,1.2,37.4
1.0,7.0,1.1,1.0,0.6,37.6
0.8,7.3,0.5,0.8,1.3,37.6
1.1,7.5,0.7,1.0,1.1,35.0
1.1,7.5,0.8,1.2,0.4,36.8
0.8,7.9,0.7,1.0,0.5,36.7
0.8,7.5,0.7,0.6,0.9,38.0
0.5,7.8,1.0,0.4,0.6,38.9
0.6,7.6,0.9,0.3,1.3,37.1
1.1,7.9,0.8,0.6,0.3,38.0
0.6,7.7,0.5,0.8,0.3,40.3
0.7,7.3,0.6,0.7,0.6,41.3
0.5,7.8,1.0,0.8,1.1,35.8
1.0,7.5,0.8,1.5,0.9,34.2
1.0,5.6,0.8,0.8,1.1,43.1
0.6,7.7,1.0,0.9,0.8,36.3
0.8,7.7,1.1,1.1,1.1,33.7
0.6,7.8,1.3,0.7,0.9,35.6
0.7,8.0,0.5,0.4,0.9,38.0
0.8,7.7,0.8,0.5,1.0,37.2
1.2,7.4,1.2,1.2,1.0,33.6
0.8,7.3,1.0,0.8,1.0,36.6
0.9,6.0,0.5,0.6,0.5,46.8
0.7,7.7,0.9,0.6,0.7,38.1
1.4,7.6,0.5,0.9,0.3,37.4
0.9,6.6,0.9,0.9,1.0,38.7
0.3,7.9,0.3,0.2,0.5,43.5
0.5,5.6,0.4,0.6,0.4,53.3
1.0,7.4,1.2,0.6,0.2,38.5
0.5,7.2,0.5,1.2,0.8,39.6
1.4,7.4,1.1,0.6,0.3,37.2
0.6,7.5,0.6,1.5,0.6,37.4
0.3,7.8,0.5,0.7,0.7,39.5
0.5,7.4,0.7,0.5,1.0,39.8
0.9,6.6,0.6,0.7,0.6,42.7
0.8,7.3,0.7,1.0,0.9,37.7
0.9,7.7,1.5,0.7,0.5,35.6
1.1,7.6,1.4,1.0,1.0,33.2
1.1,7.8,0.8,0.9,0.7,35.3
1.0,7.6,0.7,1.0,0.3,37.9
0.6,4.7,0.4,0.5,0.4,60.6
0.8,7.3,0.8,0.6,0.7,38.9
0.9,7.2,0.4,1.1,1.1,36.9
1.1,7.4,0.8,0.6,0.8,37.4
0.9,7.5,0.4,0.5,0.5,40.6
0.4,7.5,0.9,0.6,0.2,41.7
0.7,7.7,0.5,0.5,0.7,39.5
0.9,7.6,0.3,1.0,0.7,38.6
1.0,7.2,1.1,0.7,0.7,37.6
0.9,7.4,1.2,1.2,0.4,35.9
0.7,6.1,0.8,0.8,0.6,44.5
0.4,7.7,0.7,0.5,0.9,39.1
1.0,7.2,1.0,0.9,0.4,37.8
0.7,7.5,1.1,1.0,0.7,36.3
0.6,7.4,0.7,0.9,1.1,37.0
0.6,7.7,1.0,0.8,0.8,36.8
0.7,7.2,0.8,0.8,0.3,40.6
1.2,7.1,1.0,1.0,0.7,36.6
0.4,8.1,0.3,0.5,0.9,39.3
1.0,7.6,1.0,1.0,1.1,34.1
0.8,7.5,1.0,1.1,0.8,35.8
0.9,7.0,0.9,0.6,1.0,38.1
0.9,7.6,0.4,1.4,0.7,36.3
1.3,6.7,0.7,0.7,0.9,38.7
0.3,7.8,0.6,1.2,0.4,38.5
1.6,7.0,0.7,0.9,0.6,37.0
1.5,7.4,1.2,0.5,0.7,35.3
0.5,4.6,0.6,0.2,0.6,61.7
0.9,8.0,0.8,0.5,0.5,37.5
1.2,7.2,0.8,0.7,0.8,37.5
0.8,7.8,0.6,0.8,0.6,37.9
0.9,7.4,0.7,0.8,1.3,36.1
1.0,7.6,0.4,0.5,0.8,38.8
0.8,7.3,0.9,0.5,0.9,38.7
0.5,7.5,0.9,0.8,1.1,37.0
0.3,7.3,1.0,0.3,1.1,39.8
0.7,7.7,0.8,0.7,1.0,36.7
0.6,7.2,1.2,0.7,0.5,38.9
0.9,7.8,0.7,0.6,0.8,37.1
1.2,7.6,0.9,0.5,0.6,37.0
1.0,7.5,0.8,0.5,0.7,38.3
0.9,7.8,1.0,0.8,0.8,35.5
0.5,7.4,0.4,0.6,0.9,40.9
1.0,7.0,0.5,0.7,0.7,40.5
0.8,7.2,1.0,0.5,1.1,37.8
0.5,7.5,1.4,0.9,0.6,36.8
0.7,7.1,1.4,0.7,0.7,37.6
0.9,4.7,0.2,0.3,0.9,56.6
0.8,7.5,1.2,0.3,0.7,38.3
0.8,7.5,0.8,0.9,0.5,38.0
0.6,7.7,0.5,1.0,0.4,38.9
1.1,7.4,0.9,0.9,1.3,34.5
0.6,7.5,0.9,0.7,0.4,39.5
0.6,8.0,0.6,0.9,0.4,38.1
1.3,7.8,0.8,1.3,0.9,33.0
1.0,7.3,0.4,1.1,0.6,38.3
0.4,7.3,0.6,0.9,0.9,39.4
0.7,6.5,0.7,0.6,1.0,42.1
0.6,6.8,0.4,1.1,0.9,40.7
0.9,7.7,0.8,1.0,0.7,36.0
0.8,7.9,1.0,0.9,0.8,35.3
0.7,7.6,0.7,0.6,1.0,37.5
1.3,7.2,0.8,1.2,1.0,34.7
0.7,7.2,0.5,0.4,1.0,41.0
1.3,7.4,0.6,0.7,0.6,37.6
1.2,7.8,1.0,0.4,1.1,34.6
0.6,5.9,0.5,0.4,1.0,47.7
0.8,6.8,0.7,0.6,1.3,39.7
0.7,7.5,0.8,0.7,0.8,37.7
0.9,7.4,0.9,1.0,0.9,36.0
1.1,7.1,0.9,1.0,0.6,37.4
0.8,7.4,0.7,0.9,0.6,38.5
1.7,7.3,0.8,0.6,0.6,36.1
0.3,7.7,0.9,0.3,0.6,40.2
0.4,7.5,0.9,0.9,0.8,37.7
0.9,6.7,0.8,1.2,1.3,36.2
0.6,7.4,1.1,0.6,0.4,39.0
0.6,7.6,0.5,0.9,0.9,38.1
0.8,6.4,1.0,1.1,0.9,39.1
0.9,7.2,0.6,1.3,0.7,37.3
0.8,7.1,0.7,0.8,0.7,39.1
1.1,7.2,0.8,0.8,0.6,37.7
0.6,7.5,0.6,1.2,0.9,37.0
0.7,7.7,0.7,0.6,0.5,39.4
0.7,7.2,1.2,1.2,1.3,34.5
1.1,7.5,0.7,0.3,0.8,38.3
0.9,7.4,1.0,0.4,1.0,37.3
1.0,7.4,1.0,0.2,1.3,36.5
1.0,7.8,0.5,1.0,1.1,35.0
0.8,7.6,1.2,0.9,1.0,35.1
0.6,7.4,1.0,1.0,0.5,38.2
0.9,7.3,0.9,0.9,0.6,37.4
0.9,7.5,0.7,0.7,0.9,37.4
0.4,7.4,0.2,0.7,1.1,41.1
1.0,6.5,0.8,0.8,0.5,41.9
0.2,7.2,0.6,0.7,0.9,41.6
0.7,7.5,0.8,0.2,0.9,39.5
0.2,8.3,0.5,0.7,0.9,37.8
1.0,7.6,0.8,0.7,1.2,35.3
0.9,7.1,1.1,1.1,1.0,35.9
0.6,6.2,0.7,0.7,0.9,43.9
0.4,4.3,0.7,0.4,0.6,63.0
0.9,7.5,1.0,0.7,1.3,35.1
0.5,6.8,1.1,0.5,1.0,40.5
0.3,7.6,0.6,0.8,1.1,38.5
0.8,6.3,0.7,0.4,0.6,44.9
0.3,7.8,1.1,0.8,0.7,37.2
1.0,5.4,0.8,0.4,0.4,50.3
0.7,7.3,0.5,0.9,0.4,40.8
0.6,7.2,1.0,0.9,0.7,38.6
0.8,7.1,0.8,0.8,1.3,37.1
0.7,6.9,0.7,1.3,0.8,38.3
0.9,7.8,0.7,0.8,0.2,38.7
0.5,6.9,0.6,0.6,0.4,44.6
1.1,7.6,0.9,0.8,0.5,36.9
1.0,7.3,0.9,1.1,0.9,35.6
0.6,7.2,0.7,0.8,0.7,39.5
0.9,7.5,0.8,0.6,0.6,38.6
0.6,6.9,1.2,0.5,0.7,40.4
0.9,7.6,0.9,1.1,0.9,35.1
0.8,7.3,0.5,0.7,0.3,41.0
1.1,7.3,1.3,1.1,0.9,34.3
0.7,8.0,0.7,1.0,0.6,36.7
0.6,7.4,0.6,0.9,0.4,40.2
0.7,7.6,0.5,1.0,0.8,37.6
0.7,7.2,1.2,1.0,0.8,36.7
0.4,6.2,0.9,0.6,0.4,47.1
0.9,7.6,1.1,0.9,1.0,34.8
1.0,7.2,1.2,0.9,0.8,36.2
0.3,7.2,0.9,0.5,0.3,43.6
1.2,7.7,0.6,0.6,0.4,38.4
0.9,7.8,0.9,0.8,0.7,36.1
1.0,7.6,1.1,0.7,0.7,36.0
0.9,7.4,0.9,0.8,0.5,38.2
0.6,7.6,0.6,1.0,1.0,37.1
0.5,7.3,0.2,1.0,0.6,41.8
1.0,8.2,0.6,0.3,0.5,37.8
0.9,7.5,0.4,1.4,0.3,38.3
1.0,7.1,0.6,0.7,0.4,41.0
1.2,7.5,1.3,1.2,0.6,34.2
0.7,7.4,0.8,0.5,0.6,40.1
0.2,7.9,0.4,0.6,1.0,39.9
0.2,7.6,0.7,0.4,0.7,41.4
1.2,7.3,0.7,1.2,1.0,35.4
0.9,7.4,0.8,0.5,1.2,37.2
1.0,7.5,1.3,0.7,0.8,35.5
0.4,7.2,0.6,1.2,1.6,36.4
0.8,7.6,0.9,1.1,0.7,36.1
0.8,7.4,0.8,0.6,0.7,38.7
0.7,7.4,1.0,0.7,0.5,38.7
1.0,7.8,0.7,1.2,0.8,35.0
0.6,7.4,1.0,1.1,0.4,38.0
1.0,7.2,0.7,0.6,0.4,40.3
0.7,7.6,0.6,0.5,0.6,39.9
0.3,7.6,0.7,1.1,0.8,38.1
0.9,8.3,0.7,0.8,0.8,35.0
1.0,7.3,1.0,0.7,0.7,37.4
0.8,7.4,0.9,0.9,1.2,35.7
0.8,7.4,0.8,0.5,0.3,40.5
0.3,7.7,0.3,0.8,0.6,41.4
0.5,7.4,0.9,0.5,1.3,37.8
1.3,7.7,0.7,1.0,1.4,33.2
0.9,7.5,0.3,0.4,1.1,39.0
1.0,7.7,0.4,0.8,0.6,38.0
0.5,8.0,0.8,0.4,0.9,37.7
0.9,7.7,0.8,1.2,0.8,35.0
0.3,7.6,1.1,0.5,1.3,37.4
1.5,7.4,0.6,0.4,0.3,39.6
1.1,7.2,0.6,0.6,0.7,39.1
0.5,7.8,1.1,1.1,0.5,36.4
1.0,6.9,0.9,0.5,0.8,39.1
1.2,7.3,0.2,0.9,0.8,38.4
0.7,7.6,0.7,0.8,0.5,38.4
0.4,6.2,0.6,0.8,0.4,47.6
0.8,7.2,0.8,0.5,0.8,39.3
0.5,7.6,0.5,1.0,0.8,38.2
0.4,7.2,1.1,1.2,0.4,38.7
0.7,7.3,1.2,0.3,0.8,38.8
1.0,6.4,0.9,0.8,0.4,42.0
1.0,7.6,0.6,1.0,0.5,37.7
0.7,7.9,0.3,0.9,0.3,39.7
0.6,7.0,0.5,0.5,1.1,41.0
0.8,7.3,1.1,0.7,0.5,38.6
0.7,8.0,0.4,0.7,0.4,39.4
0.6,7.7,1.1,0.9,1.1,35.1
0.6,7.7,0.5,0.6,1.0,38.8
0.6,7.4,0.6,0.4,1.2,38.7
0.9,7.3,1.2,1.1,0.6,36.4
0.8,7.3,0.8,1.2,0.7,36.9
0.4,6.7,0.9,0.7,1.1,40.6
0.9,7.4,0.4,1.1,0.4,39.3
0.9,7.8,0.3,1.0,0.8,36.9
1.2,7.1,0.9,0.7,0.8,37.9
0.8,7.6,0.7,1.2,1.0,35.6
0.7,7.7,0.8,0.7,1.0,36.5
1.0,7.6,0.6,1.0,0.4,37.8
0.6,7.9,1.3,0.6,0.6,36.2
0.7,7.5,0.5,1.0,0.9,37.7
0.6,8.0,0.6,0.5,1.1,37.1
0.5,7.2,0.7,0.7,1.4,38.2
0.6,7.1,0.9,0.5,1.1,39.2
0.8,7.6,0.7,0.6,1.0,37.1
0.8,7.5,0.6,0.8,0.5,39.4
0.7,7.7,0.6,0.7,0.4,39.9
0.7,7.6,1.4,0.6,0.6,36.5
1.0,7.8,0.6,0.8,0.8,36.3
0.9,7.6,1.1,0.5,0.6,37.1
1.0,7.6,1.2,0.7,0.4,36.7
1.1,7.4,0.7,1.1,1.1,34.8
0.4,7.6,0.5,1.2,1.0,37.6
0.5,5.8,0.2,0.9,0.4,51.1
0.5,7.4,0.7,0.7,1.1,38.5
1.4,7.2,0.8,0.8,0.8,36.0
0.8,7.0,0.6,0.7,1.2,38.9
0.7,8.0,1.4,0.8,0.6,34.7
0.6,7.5,0.9,0.8,0.9,37.7
0.6,7.3,0.8,0.7,0.5,40.3
0.5,7.4,0.9,0.7,1.0,37.9
0.5,7.6,0.7,0.6,0.6,40.1
0.8,7.5,0.7,1.0,0.9,36.7
1.6,7.1,0.7,0.5,0.8,37.8
0.5,7.2,1.2,0.4,0.4,41.6
0.7,7.5,0.6,0.8,0.8,38.2
0.7,7.7,1.0,0.6,1.2,36.0
0.4,7.4,0.6,0.7,0.6,41.1
1.0,7.4,1.0,0.7,0.8,36.4
0.8,7.3,0.9,0.7,0.4,39.9
0.2,7.6,1.0,1.8,1.0,34.4
1.0,7.9,0.7,0.8,1.0,35.0
0.4,7.5,1.0,1.1,1.0,36.2
0.9,7.9,0.7,0.9,0.3,37.4
0.6,7.7,0.6,1.0,0.7,37.7
0.5,7.5,0.6,0.8,1.3,37.3
0.7,7.6,0.9,0.6,0.7,38.0
0.9,7.6,1.0,0.6,1.0,36.2
0.7,7.7,1.0,0.6,1.2,35.8
0.6,7.6,0.9,0.7,0.8,38.2
1.0,7.6,0.9,0.9,0.6,36.6
1.2,7.9,0.5,1.0,0.8,35.4
1.1,7.2,1.0,0.7,0.4,38.6
0.8,7.7,0.4,0.9,0.8,37.3
0.8,7.5,1.0,1.1,1.2,34.7
1.2,7.1,1.2,1.2,0.9,34.3
0.8,7.9,0.9,1.0,0.8,35.0
0.6,7.6,0.6,1.0,1.3,36.1
0.8,7.2,1.0,1.1,0.4,38.1
1.1,7.6,1.4,1.2,0.6,33.7
0.5,7.4,1.0,0.8,0.5,39.4
0.7,7.5,0.7,0.6,0.7,39.2
0.4,7.1,0.4,1.1,1.4,38.4
0.9,7.1,0.8,0.7,1.1,37.7
1.5,7.2,0.6,1.5,0.4,35.7
0.8,7.6,0.6,0.2,0.9,39.4
0.4,7.5,1.1,1.1,1.1,35.9
1.1,7.3,0.9,0.8,0.8,37.1
0.8,7.6,0.6,1.1,0.5,37.7
0.6,7.0,1.0,1.1,0.7,38.3
1.5,7.5,0.9,0.5,0.7,36.0
0.4,7.0,0.8,0.6,0.9,41.7
0.4,7.5,0.7,1.0,0.8,38.1
1.1,7.4,0.4,0.7,1.0,37.6
1.1,7.5,0.7,0.6,0.8,37.1
0.6,7.1,1.1,0.6,1.0,38.5
0.9,7.2,0.9,0.5,0.8,38.6
0.6,7.6,0.7,0.9,0.8,37.4
1.0,7.2,0.9,0.9,0.7,37.4
0.4,6.8,0.7,0.5,0.9,42.7
0.4,7.5,0.5,1.3,1.4,36.0
0.8,7.5,1.2,1.0,0.7,35.5
0.8,7.6,0.5,0.5,0.8,39.0
0.7,7.5,0.3,0.5,1.2,39.1
1.1,7.7,0.5,0.5,1.1,36.6
0.4,7.4,0.7,0.5,0.4,42.5
0.8,7.5,0.4,1.5,0.9,35.8
0.9,8.2,0.8,0.5,0.8,36.0
1.0,7.4,0.9,0.8,0.8,36.3
0.6,7.4,0.9,0.8,0.6,39.0
0.6,7.4,0.9,0.8,1.2,37.0
1.0,7.7,0.8,0.6,0.7,37.0
0.9,7.5,0.6,1.2,0.8,36.7
0.5,7.8,1.1,0.4,0.7,37.9
1.0,6.4,0.6,0.5,0.9,42.6
0.6,7.3,0.7,0.7,1.0,38.9
0.6,7.5,0.9,1.0,0.7,37.5
1.3,7.7,0.6,0.8,1.2,34.5
0.7,7.4,0.9,1.1,0.6,37.5
0.4,7.5,0.8,0.7,0.7,39.4
0.5,7.3,1.4,0.8,0.4,38.3
0.6,7.4,0.8,0.7,1.5,36.1
0.6,7.8,1.6,1.1,1.2,32.4
0.8,7.3,1.0,0.7,1.0,36.6
0.5,7.5,0.8,0.8,1.0,37.6
1.2,7.2,1.0,1.1,0.4,36.6
0.5,7.6,0.8,1.2,0.3,38.3
1.2,7.6,0.7,1.0,1.2,34.1
0.8,7.4,0.8,0.7,0.7,38.2
0.5,7.7,0.7,1.3,0.5,37.1
0.7,7.0,0.9,1.4,1.0,36.2
0.5,7.5,0.9,0.7,1.1,37.0
0.4,7.4,0.5,0.7,0.9,40.2
0.6,5.4,0.5,0.7,0.6,50.8
0.9,8.2,0.7,0.7,0.2,37.9
0.6,7.8,0.4,0.5,0.4,40.5
0.4,7.3,0.3,0.9,0.4,43.3
1.0,7.1,1.1,1.2,0.6,36.3
1.1,7.7,1.2,0.4,0.4,36.9
0.4,8.0,0.6,0.8,1.0,36.8
1.1,7.5,1.0,1.2,0.3,36.1
1.0,7.1,0.4,0.3,0.6,42.6
0.4,4.6,0.7,0.2,0.7,61.3
0.9,7.4,0.4,0.5,0.7,40.5
0.9,7.9,0.4,0.8,1.1,35.9
0.5,7.8,0.5,0.7,0.7,39.3
0.8,7.5,0.8,0.7,1.2,35.9
0.6,7.4,0.6,0.9,0.7,39.1
0.8,7.6,1.0,1.0,1.3,34.3
0.8,7.6,0.7,0.6,0.8,37.9
0.9,5.4,0.9,0.8,1.0,44.2
1.3,7.4,0.9,1.3,0.6,35.1
1.4,7.7,0.9,0.8,0.7,34.8
0.6,5.7,0.7,0.5,0.5,50.0
0.5,7.5,0.8,0.6,0.7,40.0
0.9,7.2,0.9,0.7,1.4,36.1
0.7,7.6,0.7,0.9,1.3,35.4
0.9,8.0,1.0,1.1,0.7,34.3
0.9,7.8,1.1,0.2,0.8,37.1
0.7,7.5,0.6,0.6,0.7,39.7
0.9,7.1,1.3,0.5,1.0,37.0
0.9,7.2,0.8,0.4,0.8,39.7
0.4,7.6,0.9,0.6,0.9,38.4
1.0,7.9,1.0,0.9,0.7,35.2
1.3,7.1,1.0,0.6,0.6,37.5
0.7,7.8,0.8,0.9,1.1,35.3
0.6,7.2,0.4,0.8,1.2,39.1
0.5,7.9,0.7,0.6,1.1,37.0
0.9,7.8,0.4,1.0,1.0,36.2
0.6,7.6,0.9,1.1,0.6,37.3
0.9,7.3,1.2,0.4,0.9,37.2
0.7,7.5,0.5,0.7,0.4,41.0
0.6,7.6,1.5,0.4,1.0,36.1
0.6,7.6,1.1,0.5,0.8,37.4
1.0,7.1,1.1,1.1,0.8,36.1
1.0,7.0,1.5,1.1,0.2,37.0
0.6,8.0,0.4,0.6,0.5,40.0
0.9,7.9,0.5,1.5,0.6,35.0
0.6,7.5,1.2,0.6,1.3,35.9
0.6,7.4,0.5,0.4,0.6,42.1
0.6,7.9,0.6,0.8,0.9,37.0
0.5,7.5,1.2,0.9,0.3,38.6
0.3,7.5,0.9,1.8,0.9,35.3
1.1,7.2,0.5,1.1,1.4,35.9
0.6,7.4,0.8,1.2,0.4,38.5
0.9,7.6,0.8,0.3,0.4,40.6
0.8,7.7,0.4,1.0,0.8,37.2
1.0,7.5,1.0,0.8,0.5,37.1
0.6,7.8,1.2,1.1,0.4,35.9
0.4,7.8,0.8,1.0,1.1,35.8
0.9,7.3,1.1,0.4,1.0,37.2
0.2,6.3,0.8,1.1,0.3,45.8
0.6,8.1,0.2,1.7,0.5,36.1
1.1,7.5,0.7,0.9,0.9,36.1
0.4,7.9,0.4,0.2,1.0,40.5
1.0,8.1,1.0,0.5,1.1,34.4
0.5,7.7,0.3,0.5,0.5,42.1
0.5,7.7,0.9,1.1,1.2,35.0
1.3,7.8,0.2,0.4,0.4,39.8
0.9,7.3,1.3,1.0,1.1,34.6
0.6,7.9,0.7,0.4,0.7,38.8
1.0,7.5,1.0,0.9,0.3,37.6
1.1,7.9,0.9,0.9,0.5,35.4
0.6,7.5,0.7,0.9,0.6,39.1
0.6,7.4,0.6,0.4,0.8,41.1
0.9,7.7,0.7,0.7,0.5,37.8
0.9,7.4,0.5,0.4,0.9,39.9
0.4,7.8,0.6,0.5,0.6,40.6
0.9,8.0,0.6,0.5,0.6,37.5
0.6,7.6,0.5,0.7,1.1,37.9
1.2,7.8,0.4,0.9,0.5,37.3
0.7,7.6,0.4,0.8,0.3,41.1
0.5,7.6,1.0,0.9,0.7,37.5
0.6,7.4,1.0,1.1,0.6,37.1
0.4,7.7,1.2,1.0,1.0,35.5
0.8,7.5,1.0,0.9,1.0,35.3
1.0,7.5,1.3,0.4,0.7,36.6
1.3,7.6,0.5,0.6,0.8,37.3
1.1,7.4,0.7,0.7,1.2,36.0
0.6,7.7,0.7,0.7,0.9,38.0
1.5,7.3,0.7,0.7,0.8,36.5
0.7,7.5,0.6,0.5,0.5,41.3
0.9,7.6,0.6,0.8,0.8,37.5
0.7,7.4,1.1,1.0,1.1,35.6
0.4,7.6,0.6,0.8,1.0,38.1
0.5,7.3,0.9,0.7,0.9,38.8
0.4,7.3,0.6,0.8,1.0,39.6
1.1,7.5,1.1,0.3,1.2,36.1
0.6,7.3,1.2,0.3,1.0,38.5
0.3,7.8,1.2,0.7,0.6,37.8
0.8,7.7,0.8,0.8,0.4,38.1
1.3,7.2,0.7,1.2,0.6,36.8
0.7,7.9,0.3,0.5,0.8,39.1
1.4,7.8,1.0,0.7,0.6,34.3
1.2,7.4,0.7,0.7,0.5,38.3
0.6,7.7,0.7,0.7,0.8,37.9
1.1,7.4,0.7,0.9,1.2,35.4
0.7,8.2,1.1,0.5,0.9,35.3
0.7,7.4,0.7,1.5,1.4,34.1
0.6,7.6,0.7,0.9,0.5,38.2
1.1,8.0,1.0,0.5,0.6,35.8
0.4,7.7,0.9,0.4,0.7,39.6
0.2,7.8,0.7,0.5,0.3,41.9
1.0,7.6,0.9,0.7,0.6,37.1
1.2,6.7,0.7,0.5,0.6,40.7
0.6,7.4,1.0,0.7,0.5,39.2
1.1,7.6,0.8,0.6,1.2,35.5
0.6,7.5,0.6,0.9,0.6,39.3
0.7,7.2,1.0,0.3,1.3,38.0
0.8,7.7,0.9,1.8,0.9,33.3
0.6,7.5,0.8,0.8,0.7,38.4
0.6,7.6,1.0,0.5,0.6,39.1
0.7,7.9,0.9,0.6,0.5,37.6
0.9,5.5,0.5,0.4,0.3,52.3
0.5,6.0,0.6,0.9,1.0,44.1
0.7,7.4,0.7,1.3,0.6,37.1
0.6,7.1,1.1,0.6,0.7,39.6
0.5,7.2,0.8,0.9,1.0,38.6
0.4,7.7,0.7,0.6,0.7,39.9
0.8,7.0,1.2,0.4,0.7,39.7
0.4,7.9,0.6,1.1,0.9,37.1
0.6,7.5,0.4,0.9,1.3,37.4
0.3,7.8,0.8,1.0,0.5,38.6
0.6,7.6,1.2,1.3,0.7,34.9
1.1,7.7,1.2,0.8,0.5,35.1
0.8,7.3,0.5,1.2,0.8,37.7
0.8,6.9,0.6,0.9,0.5,41.3
0.6,5.6,0.6,1.1,0.3,48.8
0.4,7.5,0.3,0.9,1.0,39.3
0.5,7.2,0.7,0.8,1.2,38.3
0.5,8.0,0.3,0.7,1.1,37.9
0.7,7.4,1.2,0.8,0.9,36.2
0.3,5.6,0.8,0.3,0.6,52.5
0.6,7.6,0.5,0.5,1.4,37.7
0.9,7.5,0.6,0.8,1.0,37.4
0.9,7.5,1.0,1.1,0.5,36.6
0.7,5.7,0.5,0.5,1.0,47.5
0.8,7.7,0.6,1.3,0.5,37.0
0.5,7.7,0.3,0.6,0.3,42.2
0.4,7.8,1.0,0.6,0.5,38.7
0.9,7.5,0.7,0.7,0.8,37.8
1.4,7.1,1.1,0.5,0.5,37.9
0.7,7.6,1.3,0.6,0.6,37.5
0.5,7.7,0.7,0.7,1.0,38.0
1.0,7.4,0.9,0.4,0.7,38.1
0.5,7.8,0.5,0.6,1.1,37.6
0.5,5.5,0.9,0.4,0.3,53.0
0.8,7.3,0.5,1.2,0.5,39.0
0.5,7.7,0.7,0.9,1.0,37.1
0.4,8.1,0.5,0.7,0.4,39.8
1.1,7.8,0.4,0.9,1.3,34.8
0.6,7.3,1.2,0.9,1.1,36.2
0.6,7.8,0.4,0.4,1.3,37.9
1.2,7.6,0.6,1.1,0.7,35.6
0.8,7.3,1.1,0.7,0.6,37.7
0.6,7.7,0.5,0.6,1.3,37.5
0.4,7.1,0.6,0.8,0.5,42.6
0.5,7.2,1.0,1.1,1.0,37.4
1.1,7.5,0.6,0.5,0.8,37.9
0.3,7.4,1.5,0.4,1.4,36.3
0.7,7.9,0.7,0.7,0.7,37.5
0.6,7.3,0.9,0.7,0.9,38.3
1.0,6.1,0.8,1.0,0.8,41.3
1.4,8.2,0.4,0.5,0.3,37.3
0.5,7.5,0.6,0.8,1.0,38.6
1.4,7.4,1.2,0.9,0.5,35.1
0.4,7.9,0.5,0.6,0.8,39.4
1.0,7.3,0.8,1.5,0.6,35.6
0.9,7.7,1.4,0.3,0.9,36.0
1.5,7.3,0.5,0.7,0.5,38.0
0.3,7.6,0.8,0.5,0.9,39.7
0.2,7.6,1.0,0.9,0.7,38.4
1.2,7.7,1.1,1.2,0.9,32.8
0.6,7.5,0.5,0.7,1.0,38.9
0.9,6.8,0.9,1.0,0.8,38.7
0.7,7.5,1.2,1.5,0.6,34.6
0.9,6.8,0.6,0.9,1.1,39.0
0.6,7.7,0.4,0.7,0.9,38.7
0.4,7.2,1.2,1.5,0.7,36.5
0.4,7.2,1.7,1.1,0.7,36.1
1.6,7.8,1.2,0.5,0.8,33.5
0.8,7.7,1.0,0.6,1.3,35.2
0.8,7.2,1.1,1.0,0.5,37.3
0.4,7.8,0.5,0.9,0.4,40.0
0.9,7.4,0.9,1.0,0.7,36.4
1.0,7.2,0.7,1.0,1.0,36.7
0.7,7.3,0.8,0.9,1.3,36.5
0.6,7.5,0.5,0.6,1.2,38.9
0.7,7.3,1.1,0.5,0.7,38.6
1.2,7.0,1.1,0.6,0.7,37.9
0.5,7.4,0.9,1.0,0.8,37.7
1.6,7.7,0.9,0.9,0.6,34.1
0.7,8.0,0.8,0.4,0.8,37.1
1.0,8.1,0.3,0.4,0.6,38.4
0.8,7.2,1.2,0.7,1.2,35.9
0.8,7.3,1.4,0.8,0.9,36.0
0.8,7.6,0.7,1.3,0.8,35.5
0.7,6.1,0.6,0.8,0.8,44.0
0.9,8.3,0.9,0.8,0.7,34.7
0.8,7.2,1.2,0.9,1.2,35.4
0.8,6.9,1.5,0.7,0.6,38.1
0.5,7.0,1.6,0.8,0.9,37.1
0.7,7.8,0.7,0.6,0.7,38.2
1.2,7.4,1.3,0.4,0.6,36.8
0.4,7.6,0.8,0.9,0.6,38.6
1.0,7.2,0.8,1.3,0.5,37.2
0.6,7.1,0.9,1.0,0.3,40.3
0.7,7.6,0.9,0.4,0.6,39.3
0.4,7.4,0.9,0.8,0.5,39.6
0.7,7.4,1.2,0.7,1.3,35.3
1.0,7.4,1.2,1.2,0.5,35.4
0.6,7.7,0.7,0.7,0.9,38.1
0.7,7.8,0.4,1.0,0.8,37.1
0.5,7.4,0.4,0.7,0.9,40.9
0.7,7.4,0.8,1.3,0.6,36.8
0.7,5.7,0.5,0.8,0.3,49.7
0.8,7.5,0.8,1.2,0.6,36.6
0.4,5.6,1.3,0.5,0.5,48.2
0.5,7.9,0.9,0.4,0.9,37.7
0.6,7.5,0.2,0.9,1.3,38.2
0.6,7.7,1.0,0.5,1.1,36.6
0.7,8.4,0.4,0.9,0.7,36.1
0.8,7.2,0.9,1.4,1.3,34.5
1.2,7.4,0.9,1.3,0.4,35.8
0.6,7.0,0.8,1.1,1.1,38.1
0.6,5.6,0.3,0.8,0.5,51.3
0.6,7.7,0.8,0.5,0.5,39.6
1.2,6.9,0.6,0.7,1.1,38.2
0.4,7.5,0.3,1.0,0.9,39.5
0.6,7.7,0.8,0.9,0.8,37.2
1.3,7.3,0.7,1.1,1.1,34.6
1.1,7.7,0.7,0.7,0.9,36.2
1.2,7.9,1.1,1.0,0.7,33.5
1.3,7.5,0.3,0.6,0.9,37.7
0.7,7.4,1.0,1.2,0.9,35.8
1.1,7.2,0.6,0.7,1.2,37.0
0.9,7.4,1.5,0.8,0.9,34.8
0.8,6.9,1.1,0.6,1.0,38.5
0.6,7.8,0.6,0.7,0.5,39.3
0.8,7.2,1.0,0.4,0.8,39.8
0.7,6.0,0.6,0.8,0.7,45.6
1.2,7.8,0.9,1.5,0.5,33.7
0.7,7.3,0.8,0.5,0.5,41.1
0.9,7.2,1.3,0.6,0.6,37.5
0.4,7.4,0.8,1.3,1.4,35.3
1.2,7.2,0.4,0.6,1.2,38.0
1.2,7.4,1.0,0.8,0.5,36.7
0.8,7.4,0.4,1.2,0.8,37.9
0.8,7.6,1.0,0.7,0.8,36.8
0.4,7.6,0.7,0.4,0.4,42.4
1.2,7.6,0.5,0.7,0.7,37.4
0.3,7.8,1.1,1.0,0.5,37.2
0.4,7.4,1.1,0.7,0.6,39.7
